---- Mean average precision ----
Apple 0.3922222222222222
DNA 0.8788888888888889
Roman Empire 0.5133333333333333
Solar energy 0.5264285714285715
Epigenetics 0.5133333333333333
Statistical Significance 0.4314285714285714
Hollywood 0.29
Steve Jobs 0.7
Maya 0.5
The Maya 0.33416666666666667
Microsoft 0.5091666666666667
Precision 0.4105555555555555
Tuscany 0.4680952380952381
99 balloons 0.3083333333333333
Computer Programming 0.6875
Financial meltdown 0.13
Justin Timberlake 0.35
Least Squares 0.46130952380952384
Mars robots 0.1
Page six 0.4105555555555555
Triple Cross 0.47976190476190483
US Constitution 0.10119047619047619
Eye of Horus 0.4407142857142857
Madam I’m Adam 0.31
Mean Average Precision 0.4625
Physics Nobel Prizes 0.22999999999999998
Read the manual 0.40499999999999997
Spanish Civil War 0.2893650793650793
Do geese see god 0.08273809523809524
Much ado about nothing 0.6268253968253967

---- AVG NDCG ----
Apple 0.4568222163840054
DNA 0.7782634997183828
Roman Empire 0.5711831990883212
Solar energy 0.8120888659858924
Epigenetics 0.8216477979451032
Statistical Significance 0.7237906673654604
Hollywood 0.7651912387087431
Steve Jobs 0.5976816560554143
Maya 0.6437464014812919
The Maya 0.6212785133851864
Microsoft 0.5232188768491081
Precision 0.49361915972312864
Tuscany 0.49525327488909104
99 balloons 0.6226314871176363
Computer Programming 0.8987273873986846
Financial meltdown 0.1195849777478427
Justin Timberlake 0.6386476247786103
Least Squares 0.7757404680677623
Mars robots 0.05688942192001651
Page six 0.5903455811326744
Triple Cross 0.6823401103846956
US Constitution 0.31870323310192933
Eye of Horus 0.6554220758875298
Madam I’m Adam 0.15724292490333627
Mean Average Precision 0.5702435802113986
Physics Nobel Prizes 0.41535137587402454
Read the manual 0.5734106062607759
Spanish Civil War 0.5163638072004351
Do geese see god 0.1625574989616974
Much ado about nothing 0.7341005811467781